descstat, an R Package for Computing Descriptive Statistics
…
a comma,

a second numerical value (the upper bound of the bin),

a closing bracket that should be either ) or ] for respectively a bin open or closed on the right.

This format is returned by the base::cut function which default method is relevant for numeric series and has a breaks argument (a numeric containing the breaks) and a right argument (if TRUE the bin is closed on the right).

z <- c(1, 5, 10, 12, 4, 9, 8)
bin1 <- cut(z, breaks = c(1, 8, 12), right = FALSE)
bin2 <- cut(z, breaks = c(1, 8, 12), right = TRUE)
bin3 <- cut(z, breaks = c(1, 8, 12, Inf), right = FALSE)
tibble(z, bin1, bin2, bin3)

## # A tibble: 7 x 4
##       z bin1   bin2   bin3    
##   <dbl> <fct>  <fct>  <fct>   
## 1     1 [1,8)  <NA>   [1,8)   
## 2     5 [1,8)  (1,8]  [1,8)   
## 3    10 [8,12) (8,12] [8,12)  
## 4    12 <NA>   (8,12] [12,Inf)
## 5     4 [1,8)  (1,8]  [1,8)   
## #  with 2 more rows
…
bin3 %>% as_numeric(pos = 0.5, xlast = 20)

Finally, a specific center for the first bin can also be set using the xfirst argument:

bin3 %>% as_numeric(pos = 0.5, xlast = 20, xfirst = 6)

## [1]  6  6 10 20  6 10 10

Frequency tables for discrete series

Frequency tables summarise the univariate distribution of a categorical or an integer series. In tidyverse, this task can be performed using the dplyr::count function. For example, the rgp data set, which is an extract of the French cencus, contains the number of children in households:

rgp %>% count(children)

## # A tibble: 8 x 2
##   children     n
## *    <int> <int>
## 1        0   317
## 2        1   272
## 3        2   260
## 4        3   112
## 5        4    31
## #  with 3 more rows
…
f for the (relative) frequencies,

p for the percentage (ie \(f\times 100\)),

N, F and P for the cumulative values of n, f and p.

total a boolean, if TRUE, a total is returned,

max, suitable for an integer series only, is an integer which is the maximum value presented in the frequency table, eg max = 3 creates a last line which is >=3.

The following command use all the possible letters.

rgp %>% freq_table(children, "nfpNFP")

## # A tibble: 8 x 7
##   children     n     f     p     N     F     P
## *    <int> <int> <dbl> <dbl> <int> <dbl> <dbl>
## 1        0   317 0.317  31.7   317 0.317  31.7
## 2        1   272 0.272  27.2   589 0.589  58.9
## 3        2   260 0.26   26     849 0.849  84.9
## 4        3   112 0.112  11.2   961 0.961  96.1
## 5        4    31 0.031   3.1   992 0.992  99.2
## #  with 3 more rows
…
The other possible value for the plot argument of pre_plot is cumulative:

cld <- rgp %>% freq_table(children, "F", max = 5, total = TRUE)
cld %>% pre_plot(plot = "cumulative") %>% print(n = 5)

## # A tibble: 12 x 5
##   pos       x  xend     y   yend
## * <chr> <dbl> <dbl> <dbl>  <dbl>
## 1 hor       0    NA 0.317  0.317
## 2 vert     NA    NA 0.317 NA    
## 3 hor       1     0 0.589  0.589
## 4 vert      0     0 0.589  0.317
## 5 hor       2     1 0.849  0.849
## #  with 7 more rows
…
Frequency tables for bin series

As an example, consider the wages data set that contains two series called wage and size which respectively indicate bins for wage and firm size.

wages %>% print(n = 3)

## # A tibble: 1,000 x 6
##   sector           age hours sex    wage    size    
##   <fct>          <int> <int> <fct>  <fct>   <fct>   
## 1 industry          37  1712 male   [14,16) [1,10)  
## 2 administration    57   598 female [4,6)   [50,100)
## 3 business          30  1820 male   [40,50) [20,50) 
## #  with 997 more rows
…
lzc <- wages %>% freq_table(wage, "MF", breaks = c(10, 20, 30, 40, 50)) %>%
    pre_plot(plot = "lorenz")
lzc

## # A tibble: 24 x 4
##   cls      pts       F      M
## * <chr>    <lgl> <dbl>  <dbl>
## 1 [0.2,10) FALSE 0     0     
## 2 [0.2,10) TRUE  0     0     
## 3 [0.2,10) TRUE  0.184 0.0391
## 4 [0.2,10) FALSE 0.184 0     
## 5 [10,20)  FALSE 0.184 0     
## #  with 19 more rows
…
the blue curve for a completely equal distribution,

the red curve for a completely unequal distribution.

Dealing with frequency tables

freq_table is not only designed for data sets containing individual observations but also for frequency tables, like the income data set:

income

## # A tibble: 25 x 3
##   inc_class number tot_inc
##   <chr>      <dbl>   <dbl>
## 1 [0,10)      8.76    36.3
## 2 [10,12)     2.11    23.2
## 3 [12,15)     3.40    46.2
## 4 [15,20)     6.00   104. 
## 5 [20,30)     6.98   172. 
## #  with 20 more rows

which presents the distribution of income in France with 25 bins; inc_class contains range of yearly income (in thousands of euros) number is the number of households (in millions) and tot_inc is the mass of income in the bin (in thousands of million). To use freq_table to read this frequency table, a further argument freq is required and should indicate which column of the tibble contains the frequencies:

income %>% freq_table(inc_class, freq = number)

## # A tibble: 25 x 3
##   inc_class     x     n
## * <chr>     <dbl> <dbl>
## 1 [0,10)      5    8.76
## 2 [10,12)    11    2.11
## 3 [12,15)    13.5  3.40
## 4 [15,20)    17.5  6.00
## 5 [20,30)    25    6.98
## #  with 20 more rows

If one column of the tibble contains the mass of the variables (the tot_inc series in the income tibble), it can be indicated using the mass argument:

income %>% freq_table(inc_class, freq = number, mass = tot_inc)

## # A tibble: 25 x 3
##   inc_class     x     n
## * <chr>     <dbl> <dbl>
## 1 [0,10)     4.15  8.76
## 2 [10,12)   11.0   2.11
## 3 [12,15)   13.6   3.40
## 4 [15,20)   17.4   6.00
## 5 [20,30)   24.6   6.98
## #  with 20 more rows
…
Contingency tables

With dplyr, a contingency table can be computed using count with two categorical variables. Let's first reduce the number of classes of size and wage in the wages table.

wages2 <- wages %>%
    mutate(size = cut(size, c(20, 50, 100)),
           wage = cut(wage, c(10, 30, 50)))

wages2 %>% count(size, wage)

## # A tibble: 16 x 3
##   size    wage         n
##   <fct>   <fct>    <int>
## 1 [1,20)  [0.2,10)    74
## 2 [1,20)  [10,30)    169
## 3 [1,20)  [30,50)     41
## 4 [1,20)  [50,Inf)    13
## 5 [20,50) [0.2,10)    17
## #  with 11 more rows
…
## # A tibble: 5 x 6
##   ` `   `[1,20)` `[20,50)` `[50,100)` `[100,Inf)` Total
##   <chr>    <int>     <int>      <int>       <int> <int>
## 1 1           74        17         30          63   184
## 2 2          169        75         55         236   535
## 3 3           41        26         21         103   191
## 4 4           13         6          7          64    90
## 5 Total      297       124        113         466  1000

A weights argument is used to mimic the population. For example, the employment table contains a series of weights called weights:

employment %>% cont_table(age, sex, weights = weights, total = TRUE)

## # A tibble: 6 x 4
##   `age|sex`   male female  Total
##   <chr>      <dbl>  <dbl>  <dbl>
## 1 1         12676. 14050. 26726.
## 2 2          8482. 12563. 21045.
## 3 3          9254. 12355. 21610.
## 4 4         10090. 10456. 20546.
## 5 5         15246. 21409. 36654.
## #  with 1 more row
…
